ETC5521: Exploratory Data Analysis
…
]
.w-50.f4[

```r
set.seed(1)
df <- tibble(id = 1:200)

df
```

```
## # A tibble: 200 × 1
##       id
##    <int>
##  1     1
##  2     2
##  3     3
##  4     4
##  5     5
##  6     6
##  7     7
##  8     8
##  9     9
## 10    10
## # ℹ 190 more rows
```
…
]
.w-50.f4[

```r
set.seed(1)
df <- tibble(id = 1:200) %>% 
        mutate(x = runif(n(), -10, 10))

df
```

```
## # A tibble: 200 × 2
##       id     x
##    <int> <dbl>
##  1     1 -4.69
##  2     2 -2.56
##  3     3  1.46
##  4     4  8.16
##  5     5 -5.97
##  6     6  7.97
##  7     7  8.89
##  8     8  3.22
##  9     9  2.58
## 10    10 -8.76
## # ℹ 190 more rows
```
…
]
.w-50.f4[

```r
set.seed(1)
df <- tibble(id = 1:200) %>% 
        mutate(x = runif(n(), -10, 10),
               y = x^2 + rnorm(n(), 0, 2))
df
```

```
## # A tibble: 200 × 3
##       id     x      y
##    <int> <dbl>  <dbl>
##  1     1 -4.69 20.8  
##  2     2 -2.56  6.63 
##  3     3  1.46  0.301
##  4     4  8.16 67.0  
##  5     5 -5.97 34.3  
##  6     6  7.97 67.0  
##  7     7  8.89 80.5  
##  8     8  3.22 12.2  
##  9     9  2.58  7.44 
## 10    10 -8.76 80.2  
## # ℹ 190 more rows
```
…
--

```r
df <- tibble(id = 1:2000) %>% 
  mutate(Smoker = rep(c("Yes", "No"), each = n() / 2),
         Sex = rep(c("Female", "Male"), times = n() / 2)) 

print(df, n = 4)
```

```
## # A tibble: 2,000 × 3
##      id Smoker Sex   
##   <int> <chr>  <chr> 
## 1     1 Yes    Female
## 2     2 Yes    Male  
## 3     3 Yes    Female
## 4     4 Yes    Male  
## # ℹ 1,996 more rows
```
…
df %>% 
  filter(Cancer=="Yes")
```

```
## # A tibble: 53 × 5
## # Rowwise: 
##       id Smoker Sex    CancerBinary Cancer
##    <int> <chr>  <chr>         <int> <chr> 
##  1    27 Yes    Female            1 Yes   
##  2    32 Yes    Male              1 Yes   
##  3    47 Yes    Female            1 Yes   
##  4    83 Yes    Female            1 Yes   
##  5   129 Yes    Female            1 Yes   
##  6   136 Yes    Male              1 Yes   
##  7   149 Yes    Female            1 Yes   
##  8   218 Yes    Male              1 Yes   
##  9   245 Yes    Female            1 Yes   
## 10   251 Yes    Female            1 Yes   
## # ℹ 43 more rows
```
…
```r
menarche %>% 
  rowwise() %>% 
  mutate(
    phat = 1/(1 + exp(-(beta[1] + beta[2] * Age))),
*   simMenarche = rbinom(1, Total, phat))
```

```
## # A tibble: 25 × 5
## # Rowwise: 
##      Age Total Menarche    phat simMenarche
##    <dbl> <dbl>    <dbl>   <dbl>       <int>
##  1  9.21   376        0 0.00203           1
##  2 10.2    200        0 0.0103            3
##  3 10.6     93        0 0.0187            2
##  4 10.8    120        2 0.0279            3
##  5 11.1     90        2 0.0413            1
##  6 11.3     88        5 0.0609            6
##  7 11.6    105       10 0.0888            9
##  8 11.8    111       17 0.128            12
##  9 12.1    100       16 0.181            17
## 10 12.3     93       29 0.249            23
## # ℹ 15 more rows
```
…
